<?xml version="1.0" encoding="UTF-8" standalone="no"?>
<!-- Created with Inkscape (http://www.inkscape.org/) -->

<svg
   xmlns:dc="http://purl.org/dc/elements/1.1/"
   xmlns:cc="http://creativecommons.org/ns#"
   xmlns:rdf="http://www.w3.org/1999/02/22-rdf-syntax-ns#"
   xmlns:svg="http://www.w3.org/2000/svg"
   xmlns="http://www.w3.org/2000/svg"
   xmlns:sodipodi="http://sodipodi.sourceforge.net/DTD/sodipodi-0.dtd"
   xmlns:inkscape="http://www.inkscape.org/namespaces/inkscape"
   width="227.61899"
   height="164.61848"
   id="svg2"
   version="1.1"
   inkscape:version="0.48.1 r9760"
   sodipodi:docname="TSOR_ ABLogo(TypeA).svg"
   inkscape:export-filename="/home/zc456/My Media/Artwork/Logos/TSOR_ABLogo(TypeA).png"
   inkscape:export-xdpi="90"
   inkscape:export-ydpi="90">
  <defs
     id="defs4" />
  <sodipodi:namedview
     id="base"
     pagecolor="#ffffff"
     bordercolor="#666666"
     borderopacity="1.0"
     inkscape:pageopacity="0.0"
     inkscape:pageshadow="2"
     inkscape:zoom="1.979899"
     inkscape:cx="45.535663"
     inkscape:cy="59.393952"
     inkscape:document-units="px"
     inkscape:current-layer="layer1"
     showgrid="false"
     inkscape:window-width="879"
     inkscape:window-height="845"
     inkscape:window-x="702"
     inkscape:window-y="0"
     inkscape:window-maximized="0"
     fit-margin-top="0"
     fit-margin-left="0"
     fit-margin-right="0"
     fit-margin-bottom="0" />
  <metadata
     id="metadata7">
    <rdf:RDF>
      <cc:Work
         rdf:about="">
        <dc:format>image/svg+xml</dc:format>
        <dc:type
           rdf:resource="http://purl.org/dc/dcmitype/StillImage" />
        <dc:title></dc:title>
        <cc:license
           rdf:resource="http://creativecommons.org/licenses/by-nc/3.0/" />
      </cc:Work>
      <cc:License
         rdf:about="http://creativecommons.org/licenses/by-nc/3.0/">
        <cc:permits
           rdf:resource="http://creativecommons.org/ns#Reproduction" />
        <cc:permits
           rdf:resource="http://creativecommons.org/ns#Distribution" />
        <cc:requires
           rdf:resource="http://creativecommons.org/ns#Notice" />
        <cc:requires
           rdf:resource="http://creativecommons.org/ns#Attribution" />
        <cc:prohibits
           rdf:resource="http://creativecommons.org/ns#CommercialUse" />
        <cc:permits
           rdf:resource="http://creativecommons.org/ns#DerivativeWorks" />
      </cc:License>
    </rdf:RDF>
  </metadata>
  <g
     inkscape:groupmode="layer"
     id="layer2"
     inkscape:label="TSO logo"
     transform="translate(-18.928574,4.7325436)" />
  <g
     inkscape:label="Layer 1"
     inkscape:groupmode="layer"
     id="layer1"
     transform="translate(-270.42661,-280.5436)">
    <text
       xml:space="preserve"
       style="font-size:40.12583542px;font-style:normal;font-variant:normal;font-weight:normal;font-stretch:normal;line-height:125%;letter-spacing:0px;word-spacing:0px;fill:#000000;fill-opacity:1;stroke:none;font-family:SimLLHP;-inkscape-font-specification:SimLLHP"
       x="297.06763"
       y="402.11212"
       id="text3390"
       sodipodi:linespacing="125%"
       transform="matrix(0.92756242,-0.10628947,0.13671557,1.0624283,0,0)"><tspan
         sodipodi:role="line"
         id="tspan3392"
         x="297.06763"
         y="402.11212"
         style="font-size:72.22650909px;fill:#000000;stroke:none">T</tspan></text>
    <text
       xml:space="preserve"
       style="font-size:41.21500778px;font-style:normal;font-variant:normal;font-weight:normal;font-stretch:normal;line-height:125%;letter-spacing:0px;word-spacing:0px;fill:#000000;fill-opacity:1;stroke:none;font-family:SimLLHP;-inkscape-font-specification:SimLLHP"
       x="339.64795"
       y="414.46237"
       id="text3394"
       sodipodi:linespacing="125%"
       transform="matrix(1.0236208,-0.02561541,0.02897388,0.97619921,0,0)"><tspan
         sodipodi:role="line"
         id="tspan3396"
         x="339.64795"
         y="414.46237"
         style="font-size:74.18700409px;font-style:normal;font-variant:normal;font-weight:bold;font-stretch:normal;fill:#000000;stroke:none;font-family:SimLLHP;-inkscape-font-specification:SimLLHP Bold">S</tspan></text>
    <text
       xml:space="preserve"
       style="font-size:43.43758392px;font-style:normal;font-variant:normal;font-weight:normal;font-stretch:normal;line-height:125%;letter-spacing:0px;word-spacing:0px;fill:#000000;fill-opacity:1;stroke:none;font-family:SimLLHP;-inkscape-font-specification:SimLLHP"
       x="413.87091"
       y="376.40475"
       id="text3402"
       sodipodi:linespacing="125%"
       transform="scale(0.9596427,1.0420545)"><tspan
         sodipodi:role="line"
         id="tspan3404"
         x="413.87091"
         y="376.40475"
         style="font-size:69.50013733px;fill:#000000;stroke:none">O</tspan><tspan
         sodipodi:role="line"
         x="413.87091"
         y="463.27994"
         style="font-size:69.50013733px;fill:#000000;stroke:none"
         id="tspan3508" /></text>
    <g
       id="g4312"
       transform="matrix(1.0539934,0,0,1,-54.783153,17.316173)">
      <g
         style="fill:#000000;stroke:none"
         id="g3263"
         transform="matrix(0.58069527,0,0,0.73782834,250.94081,88.75117)">
        <rect
           style="fill:#000000;fill-opacity:1;stroke:none"
           id="rect3082"
           width="51.012703"
           height="5.0507627"
           x="24.935591"
           y="389.88419"
           transform="matrix(0.83169346,-0.55523508,0.55523508,0.83169346,0,0)" />
        <rect
           style="fill:#000000;fill-opacity:1;stroke:none"
           id="rect3102"
           width="12.356422"
           height="11.494203"
           x="265.12653"
           y="298.36499" />
        <rect
           style="fill:#000000;fill-opacity:1;stroke:none"
           id="rect3102-2"
           width="12.356422"
           height="11.494203"
           x="280.69937"
           y="298.67789" />
        <rect
           style="fill:#000000;fill-opacity:1;stroke:none"
           id="rect3102-0"
           width="12.356422"
           height="11.494203"
           x="264.85483"
           y="311.56335" />
        <rect
           style="fill:#000000;fill-opacity:1;stroke:none"
           id="rect3102-2-8"
           width="12.356422"
           height="11.494203"
           x="280.10956"
           y="311.87625" />
        <rect
           style="fill:#000000;fill-opacity:1;stroke:none"
           id="rect3082-0"
           width="51.012707"
           height="5.0507627"
           x="-440.70978"
           y="79.044899"
           transform="matrix(-0.83169346,-0.55523508,-0.55523507,0.83169346,0,0)" />
      </g>
      <g
         id="g4307">
        <rect
           style="fill:#000000;fill-opacity:1;stroke:none"
           id="rect4267"
           width="5.3571429"
           height="7.6785717"
           x="390.42661"
           y="308.55493" />
        <rect
           style="fill:#000000;fill-opacity:1;stroke:none"
           id="rect4267-2"
           width="5.3571429"
           height="7.6785717"
           x="390.42661"
           y="300.07278" />
        <path
           style="fill:#000000;fill-opacity:1;stroke:none"
           d="m 391.85518,298.01923 c -5.51819,-4.13164 2.31885,-6.06885 4.46429,-8.21429 2.1972,-2.1972 1.49595,-6.05683 5,-8.39286 1.71177,-1.14118 5.06868,1.71703 5.53571,1.25 1.45394,-1.45394 6.18566,-2.92148 7.5,-1.60714 1.51919,1.51919 1.57703,6.45868 0.17857,7.85714 -1.64365,1.64366 -5.92475,-2.43622 -6.96428,-0.35714 -2.35507,4.71013 -1.21479,7.16047 -6.96429,4.28572 -1.1651,-0.58255 -4.543,5.17857 -8.75,5.17857 z"
           id="path4305"
           inkscape:connector-curvature="0" />
      </g>
    </g>
    <text
       xml:space="preserve"
       style="font-size:35.80297852px;font-style:normal;font-variant:normal;font-weight:bold;font-stretch:normal;line-height:125%;letter-spacing:0px;word-spacing:0px;fill:#000000;fill-opacity:1;stroke:none;font-family:Ubuntu;-inkscape-font-specification:Ubuntu Bold"
       x="316.10287"
       y="393.38156"
       id="text4363"
       sodipodi:linespacing="125%"
       transform="scale(0.92328627,1.0830877)"><tspan
         sodipodi:role="line"
         id="tspan4365"
         x="316.10287"
         y="393.38156"
         style="font-style:normal;font-variant:normal;font-weight:bold;font-stretch:normal;font-family:Ubuntu;-inkscape-font-specification:Ubuntu Bold">Restoration</tspan></text>
  </g>
</svg>
